Final Project: Debatten om prostitution i danske aviser 1830-1885
…
Der er forskelligt metadata tilgængeligt i det indlæste data; bl.a. artiklernes udgivelsessted. Jeg undersøger nu artiklernes geografiske udgivelsessted ved hjælp af funktinoerne “group_by()”, “count()” og “arrange()”, På denne måde ønsker jeg at bruge R til at vise, om der er en geografisk udvikling i årtierne i forhold til hvor prostitution diskuteres.

prostitution_årtier %>% 
  group_by(decade) %>% 
  count(lplace, sort = TRUE) %>% 
  arrange(lplace) %>% 
  arrange(decade)

# A tibble: 163 × 3
# Groups:   decade [6]
   decade lplace               n
    <dbl> <chr>            <int>
 1   1830 Aabenraa             1
 2   1830 Aalborg              5
 3   1830 Aarhus              14
 4   1830 Haderslev            1
 5   1830 Horsens              4
 6   1830 København           38
 7   1830 Maribo               2
 8   1830 Nykøbing Falster     2
 9   1830 Odense              16
10   1830 Ribe                 4
# ℹ 153 more rows

Jeg benytter de samme funktioner for at se, om der er en udvikling i forhold til hvilke aviser, der skriver om prostitution i løbet af årtierne.

prostitution_årtier %>%
  group_by(decade) %>% 
  count(familyId, sort = TRUE) %>% 
  arrange(decade)

# A tibble: 245 × 3
# Groups:   decade [6]
   decade familyId                         n
    <dbl> <chr>                        <int>
 1   1830 kioebenhavnsposten1827          28
 2   1830 fyensstiftstidende              16
 3   1830 aarhusstiftstidende             14
 4   1830 viborgstiftstidende              9
 5   1830 aalborgstiftstidende             5
 6   1830 dagen1803                        5
 7   1830 bornholmsavis                    4
 8   1830 horsensavis1828                  4
 9   1830 lollandfalstersstiftstidende     4
10   1830 ribestiftstidende                4
# ℹ 235 more rows
…
# De tre stopordslister kombineres og dubletter fjernes 
stopord_kombineret <- bind_rows(stopord_1800, stopord_txt, manuelle_stopord) %>%
  distinct()

stopord_kombineret

# A tibble: 697 × 1
   word 
   <chr>
 1 i    
 2 og   
 3 til  
 4 den  
 5 at   
 6 af   
 7 rd   
 8 a    
 9 for  
10 paa  
# ℹ 687 more rows
…
# De 100 hyppigst forekomne ord i 1830'erne
prostitution_1830s_tidy <- prostitution_1830s %>%
  unnest_tokens(word, fulltext_org) %>%
   filter(str_length(word) > 3) %>%
  filter(!str_detect(word, "\\d")) %>% 
  anti_join(stopord_kombineret, by = "word") %>%
  count(word, sort = TRUE) %>%
  slice_max(n, n = 100)

prostitution_1830s_tidy

# A tibble: 129 × 2
   word             n
   <chr>        <int>
 1 blad            35
 2 prostitution    34
 3 anledning       33
 4 prostitueret    29
 5 sagen           28
 6 offentlige      25
 7 prostituere     25
 8 personer        24
 9 laud            23
10 gamle           22
# ℹ 119 more rows
…
# De 100 hyppigst forekomne ord i 1840'erne

prostitution_1840s_tidy <- prostitution_1840s %>%
  unnest_tokens(word, fulltext_org) %>%
   filter(str_length(word) > 3) %>%
  filter(!str_detect(word, "\\d")) %>% 
  anti_join(stopord_kombineret, by = "word") %>%
  count(word, sort = TRUE) %>%
  slice_max(n, n = 100)

prostitution_1840s_tidy

# A tibble: 104 × 2
   word             n
   <chr>        <int>
 1 kongen         198
 2 danmark        166
 3 prostitution   166
 4 anledning      162
 5 mening         156
 6 folk           143
 7 tale           143
 8 sagen          142
 9 hensyn         138
10 danske         135
# ℹ 94 more rows
…
# De 100 hyppigst forekomne ord i 1850'erne

prostitution_1850s_tidy <- prostitution_1850s %>%
  unnest_tokens(word, fulltext_org) %>%
   filter(str_length(word) > 3) %>%
  filter(!str_detect(word, "\\d")) %>% 
  anti_join(stopord_kombineret, by = "word") %>%
  count(word, sort = TRUE) %>%
  slice_max(n, n = 100)

prostitution_1850s_tidy

# A tibble: 100 × 2
   word            n
   <chr>       <int>
 1 tale          395
 2 sagen         388
 3 hensyn        380
 4 ministeriet   360
 5 folk          354
 6 kongen        353
 7 forhold       349
 8 anledning     335
 9 danske        327
10 danmark       314
# ℹ 90 more rows
…
# De 100 hyppigst forekomne ord i 1860'erne

prostitution_1860s_tidy <- prostitution_1860s %>%
  unnest_tokens(word, fulltext_org) %>%
   filter(str_length(word) > 3) %>%
  filter(!str_detect(word, "\\d")) %>% 
  anti_join(stopord_kombineret, by = "word") %>%
  count(word, sort = TRUE) %>%
  slice_max(n, n = 100)

prostitution_1860s_tidy

# A tibble: 102 × 2
   word            n
   <chr>       <int>
 1 sagen         766
 2 hensyn        703
 3 danmark       667
 4 kongen        667
 5 forhold       646
 6 slesvig       589
 7 tale          573
 8 folk          571
 9 anledning     553
10 magistraten   496
# ℹ 92 more rows
…
# De 100 hyppigst forekomne ord i 1870'erne

prostitution_1870s_tidy <- prostitution_1870s %>%
  unnest_tokens(word, fulltext_org) %>%
   filter(str_length(word) > 3) %>%
  filter(!str_detect(word, "\\d")) %>% 
  anti_join(stopord_kombineret, by = "word") %>%
  count(word, sort = TRUE) %>%
  slice_max(n, n = 100)

prostitution_1870s_tidy

# A tibble: 102 × 2
   word          n
   <chr>     <int>
 1 venstre    1341
 2 sagen       933
 3 forhold     783
 4 hensyn      776
 5 hansen      775
 6 tale        769
 7 folk        765
 8 medlemmer   703
 9 anledning   695
10 gamle       637
# ℹ 92 more rows
…
# De 100 hyppigst forekomne ord i årene 1880-1885

prostitution_1880_1885_tidy <- prostitution_1880_1885 %>%
  unnest_tokens(word, fulltext_org) %>%
   filter(str_length(word) > 3) %>%
  filter(!str_detect(word, "\\d")) %>% 
  anti_join(stopord_kombineret, by = "word") %>%
  count(word, sort = TRUE) %>%
  slice_max(n, n = 100)

prostitution_1880_1885_tidy

# A tibble: 100 × 2
   word               n
   <chr>          <int>
 1 sagen           1603
 2 venstre         1339
 3 folk            1210
 4 tale            1197
 5 forhold         1158
 6 gamle           1073
 7 mode            1062
 8 prostitutionen  1049
 9 hensyn           978
10 kvinder          977
# ℹ 90 more rows
…
Første trin er at bryde teksten (fulltext_org) op i individuelle ord ved hjælp af unnest_tokens()-funktionen. På denne måde får jeg ét ord pr. række i datasættet. Stopord, tal og ord på under tre bogstaver filtreres fra.

prostitution_årtier_tidy <- prostitution_årtier %>% 
  unnest_tokens(word, fulltext_org) %>% 
  filter(!str_detect(word, "\\d")) %>%        
  filter(str_length(word) > 3) %>%  
   anti_join(stopord_kombineret, by = "word")

Det er nu muligt at tælle, hvor hyppigt et givent ord forekommer i de forskellige årtier ved hjælp af count()-funktionen.

prostitution_årtier_tidy %>%
  count(decade, word, sort = TRUE)

# A tibble: 723,243 × 3
   decade word               n
    <dbl> <chr>          <int>
 1   1880 sagen           1603
 2   1870 venstre         1341
 3   1880 venstre         1339
 4   1880 folk            1210
 5   1880 tale            1197
 6   1880 forhold         1158
 7   1880 gamle           1073
 8   1880 mode            1062
 9   1880 prostitutionen  1049
10   1880 hensyn           978
# ℹ 723,233 more rows
…
Den nye kolonne med totale antal ord pr. årti tilføjes til min dataframe med kommandoen left_join().

prostitution_årtier_tidy %>%
  count(decade, word, sort = TRUE) %>% 
  left_join(total_words, by = "decade") -> prostitution_årtier_counts
prostitution_årtier_counts

# A tibble: 723,243 × 4
   decade word               n  total
    <dbl> <chr>          <int>  <int>
 1   1880 sagen           1603 908125
 2   1870 venstre         1341 641429
 3   1880 venstre         1339 908125
 4   1880 folk            1210 908125
 5   1880 tale            1197 908125
 6   1880 forhold         1158 908125
 7   1880 gamle           1073 908125
 8   1880 mode            1062 908125
 9   1880 prostitutionen  1049 908125
10   1880 hensyn           978 908125
# ℹ 723,233 more rows

Jeg udregner nu “Term frequency-inverse document frequency” med bind_tf_idf()-funktionen. Jeg benytter arrange()-funktionen til at få vist de ord, der har højest tf-idf-værdi, først.

prostitution_tfidf_ny <- prostitution_årtier_counts %>% 
  bind_tf_idf(word, "decade", n) %>% 
  arrange(desc(tf_idf))

prostitution_tfidf_ny

# A tibble: 723,243 × 7
   decade word            n  total       tf   idf   tf_idf
    <dbl> <chr>       <int>  <int>    <dbl> <dbl>    <dbl>
 1   1830 medicus        12  20774 0.000578 1.10  0.000635
 2   1830 hahnemann       6  20774 0.000289 1.79  0.000518
 3   1830 worms           9  20774 0.000433 1.10  0.000476
 4   1880 hojre         389 908125 0.000428 1.10  0.000471
 5   1880 kvinder       977 908125 0.00108  0.405 0.000436
 6   1830 bunyen          5  20774 0.000241 1.79  0.000431
 7   1830 paketten        5  20774 0.000241 1.79  0.000431
 8   1830 prati           5  20774 0.000241 1.79  0.000431
 9   1830 schaldemose     5  20774 0.000241 1.79  0.000431
10   1870 venstre      1341 641429 0.00209  0.182 0.000381
# ℹ 723,233 more rows
…
Jeg ønsker nu at gå fra distant reading til close reading for at undersøge i hvilken kontekst, ordene indgår i.

“Kvinder” har en høj tf-idf-værdi i både 1870’erne og i 1880-1885, og jeg vælger at nærlæse artikler om prostitution, hvor “kvinder” indgår. På denne måde kan jeg undersøge den kontekst, hvori ordet “kvinder” optræder. Det er værd bemærke, at jeg kunne have stillet skarpt på flere af ordene, hvis opgavens omfang havde været større.

Først findes de artikler, hvor ordet “kvinder” indgår i 1870’erne.

prostitution_årtier %>% 
  filter(decade == 1870) %>% 
  filter(str_detect(fulltext_org, regex("kvinder", ignore_case = TRUE)))

# A tibble: 224 × 18
   link           recordID timestamp             pwa   cer fulltext_org pageUUID
   <chr>          <chr>    <dttm>              <dbl> <dbl> <chr>        <chr>   
 1 http://www2.s… doms_ne… 1870-08-03 01:00:00  54.5 0.455 "VolitW og … doms_av…
 2 http://www2.s… doms_ne… 1870-09-14 01:00:00  60.7 0.393 "som vi tid… doms_av…
 3 http://www2.s… doms_ne… 1870-10-11 01:00:00  59.4 0.406 "Tirsdagen … doms_av…
 4 http://www2.s… doms_ne… 1870-11-04 01:00:00  57.6 0.424 "den næsten… doms_av…
 5 http://www2.s… doms_ne… 1871-01-06 01:00:00  52   0.48  "Fredagen d… doms_av…
 6 http://www2.s… doms_ne… 1871-01-26 01:00:00  52   0.48  "DAGS -TELE… doms_av…
 7 http://www2.s… doms_ne… 1871-04-23 01:00:00  52.1 0.479 "ministerie… doms_av…
 8 http://www2.s… doms_ne… 1871-06-08 01:00:00  68.1 0.319 "toneret. F… doms_av…
 9 http://www2.s… doms_ne… 1871-06-15 01:00:00  56.3 0.437 "»ti\\nFjer… doms_av…
10 http://www2.s… doms_ne… 1871-08-21 01:00:00  51.5 0.485 "32, Tvangs… doms_av…
# ℹ 214 more rows
# ℹ 11 more variables: editionUUID <chr>, titleUUID <chr>, editionId <chr>,
#   familyId <chr>, newspaper_page <dbl>, newspaper_edition <dbl>,
#   lplace <chr>, location_name <chr>, location_coordinates <chr>, year <dbl>,
#   decade <dbl>

Derefter findes de artikler, hvor ordet “kvinder” indgår i 1880-1885.

prostitution_årtier %>% 
  filter(decade == 1880) %>% 
  filter(str_detect(fulltext_org, regex("kvinder", ignore_case = TRUE)))

# A tibble: 542 × 18
   link           recordID timestamp             pwa   cer fulltext_org pageUUID
   <chr>          <chr>    <dttm>              <dbl> <dbl> <chr>        <chr>   
 1 http://www2.s… doms_ne… 1880-01-01 01:00:00  50.3 0.497 "hoff 218. … doms_av…
 2 http://www2.s… doms_ne… 1880-01-12 01:00:00  54.3 0.457 "Bandagen d… doms_av…
 3 http://www2.s… doms_ne… 1880-01-22 01:00:00  58.6 0.414 "til hans H… doms_av…
 4 http://www2.s… doms_ne… 1880-02-27 01:00:00  48   0.52  "kele en Ke… doms_av…
 5 http://www2.s… doms_ne… 1880-03-19 01:00:00  47.9 0.521 "»df< Xttt … doms_av…
 6 http://www2.s… doms_ne… 1880-04-16 01:00:00  55.9 0.441 "1878 til 2… doms_av…
 7 http://www2.s… doms_ne… 1880-05-12 01:00:00  54.8 0.452 "I. E. Knud… doms_av…
 8 http://www2.s… doms_ne… 1880-05-20 01:00:00  65.8 0.342 "Torsdagen … doms_av…
 9 http://www2.s… doms_ne… 1880-05-20 01:00:00  58.4 0.416 "20DC Maj 1… doms_av…
10 http://www2.s… doms_ne… 1880-05-20 01:00:00  61.1 0.389 "Udgaar 6 G… doms_av…
# ℹ 532 more rows
# ℹ 11 more variables: editionUUID <chr>, titleUUID <chr>, editionId <chr>,
#   familyId <chr>, newspaper_page <dbl>, newspaper_edition <dbl>,
#   lplace <chr>, location_name <chr>, location_coordinates <chr>, year <dbl>,
#   decade <dbl>
